^C:\USERS\BLUE\DESKTOP\겜소공\프레임워크\GITPROJECT\01_2016182033\REMASTER_PROJ\SIMPLEGAME\SIMPLEGAME\STDAFX.CPP
/c /Zi /nologo /W3 /WX- /diagnostics:column /sdl /O2 /Oi /GL /D NDEBUG /D _CONSOLE /D _UNICODE /D UNICODE /Gm- /EHsc /MD /GS /Gy /fp:precise /Zc:wchar_t /Zc:forScope /Zc:inline /Yc"stdafx.h" /Fp"X64\RELEASE\SIMPLEGAME.PCH" /Fo"X64\RELEASE\\" /Fd"X64\RELEASE\VC142.PDB" /Gd /TP /FC C:\USERS\BLUE\DESKTOP\겜소공\프레임워크\GITPROJECT\01_2016182033\REMASTER_PROJ\SIMPLEGAME\SIMPLEGAME\STDAFX.CPP
^C:\USERS\BLUE\DESKTOP\겜소공\프레임워크\GITPROJECT\01_2016182033\REMASTER_PROJ\SIMPLEGAME\SIMPLEGAME\ACTOR.CPP
/c /Zi /nologo /W3 /WX- /diagnostics:column /sdl /O2 /Oi /GL /D NDEBUG /D _CONSOLE /D _UNICODE /D UNICODE /Gm- /EHsc /MD /GS /Gy /fp:precise /Zc:wchar_t /Zc:forScope /Zc:inline /Yu"stdafx.h" /Fp"X64\RELEASE\SIMPLEGAME.PCH" /Fo"X64\RELEASE\\" /Fd"X64\RELEASE\VC142.PDB" /Gd /TP /FC C:\USERS\BLUE\DESKTOP\겜소공\프레임워크\GITPROJECT\01_2016182033\REMASTER_PROJ\SIMPLEGAME\SIMPLEGAME\ACTOR.CPP
^C:\USERS\BLUE\DESKTOP\겜소공\프레임워크\GITPROJECT\01_2016182033\REMASTER_PROJ\SIMPLEGAME\SIMPLEGAME\BULLET.CPP
/c /Zi /nologo /W3 /WX- /diagnostics:column /sdl /O2 /Oi /GL /D NDEBUG /D _CONSOLE /D _UNICODE /D UNICODE /Gm- /EHsc /MD /GS /Gy /fp:precise /Zc:wchar_t /Zc:forScope /Zc:inline /Yu"stdafx.h" /Fp"X64\RELEASE\SIMPLEGAME.PCH" /Fo"X64\RELEASE\\" /Fd"X64\RELEASE\VC142.PDB" /Gd /TP /FC C:\USERS\BLUE\DESKTOP\겜소공\프레임워크\GITPROJECT\01_2016182033\REMASTER_PROJ\SIMPLEGAME\SIMPLEGAME\BULLET.CPP
^C:\USERS\BLUE\DESKTOP\겜소공\프레임워크\GITPROJECT\01_2016182033\REMASTER_PROJ\SIMPLEGAME\SIMPLEGAME\CHARACTER.CPP
/c /Zi /nologo /W3 /WX- /diagnostics:column /sdl /O2 /Oi /GL /D NDEBUG /D _CONSOLE /D _UNICODE /D UNICODE /Gm- /EHsc /MD /GS /Gy /fp:precise /Zc:wchar_t /Zc:forScope /Zc:inline /Yu"stdafx.h" /Fp"X64\RELEASE\SIMPLEGAME.PCH" /Fo"X64\RELEASE\\" /Fd"X64\RELEASE\VC142.PDB" /Gd /TP /FC C:\USERS\BLUE\DESKTOP\겜소공\프레임워크\GITPROJECT\01_2016182033\REMASTER_PROJ\SIMPLEGAME\SIMPLEGAME\CHARACTER.CPP
^C:\USERS\BLUE\DESKTOP\겜소공\프레임워크\GITPROJECT\01_2016182033\REMASTER_PROJ\SIMPLEGAME\SIMPLEGAME\COLLISION.CPP
/c /Zi /nologo /W3 /WX- /diagnostics:column /sdl /O2 /Oi /GL /D NDEBUG /D _CONSOLE /D _UNICODE /D UNICODE /Gm- /EHsc /MD /GS /Gy /fp:precise /Zc:wchar_t /Zc:forScope /Zc:inline /Yu"stdafx.h" /Fp"X64\RELEASE\SIMPLEGAME.PCH" /Fo"X64\RELEASE\\" /Fd"X64\RELEASE\VC142.PDB" /Gd /TP /FC C:\USERS\BLUE\DESKTOP\겜소공\프레임워크\GITPROJECT\01_2016182033\REMASTER_PROJ\SIMPLEGAME\SIMPLEGAME\COLLISION.CPP
^C:\USERS\BLUE\DESKTOP\겜소공\프레임워크\GITPROJECT\01_2016182033\REMASTER_PROJ\SIMPLEGAME\SIMPLEGAME\COMMAND.CPP
/c /Zi /nologo /W3 /WX- /diagnostics:column /sdl /O2 /Oi /GL /D NDEBUG /D _CONSOLE /D _UNICODE /D UNICODE /Gm- /EHsc /MD /GS /Gy /fp:precise /Zc:wchar_t /Zc:forScope /Zc:inline /Yu"stdafx.h" /Fp"X64\RELEASE\SIMPLEGAME.PCH" /Fo"X64\RELEASE\\" /Fd"X64\RELEASE\VC142.PDB" /Gd /TP /FC C:\USERS\BLUE\DESKTOP\겜소공\프레임워크\GITPROJECT\01_2016182033\REMASTER_PROJ\SIMPLEGAME\SIMPLEGAME\COMMAND.CPP
^C:\USERS\BLUE\DESKTOP\겜소공\프레임워크\GITPROJECT\01_2016182033\REMASTER_PROJ\SIMPLEGAME\SIMPLEGAME\CONTROLLER.CPP
/c /Zi /nologo /W3 /WX- /diagnostics:column /sdl /O2 /Oi /GL /D NDEBUG /D _CONSOLE /D _UNICODE /D UNICODE /Gm- /EHsc /MD /GS /Gy /fp:precise /Zc:wchar_t /Zc:forScope /Zc:inline /Yu"stdafx.h" /Fp"X64\RELEASE\SIMPLEGAME.PCH" /Fo"X64\RELEASE\\" /Fd"X64\RELEASE\VC142.PDB" /Gd /TP /FC C:\USERS\BLUE\DESKTOP\겜소공\프레임워크\GITPROJECT\01_2016182033\REMASTER_PROJ\SIMPLEGAME\SIMPLEGAME\CONTROLLER.CPP
^C:\USERS\BLUE\DESKTOP\겜소공\프레임워크\GITPROJECT\01_2016182033\REMASTER_PROJ\SIMPLEGAME\SIMPLEGAME\DUMB.CPP
/c /Zi /nologo /W3 /WX- /diagnostics:column /sdl /O2 /Oi /GL /D NDEBUG /D _CONSOLE /D _UNICODE /D UNICODE /Gm- /EHsc /MD /GS /Gy /fp:precise /Zc:wchar_t /Zc:forScope /Zc:inline /Yu"stdafx.h" /Fp"X64\RELEASE\SIMPLEGAME.PCH" /Fo"X64\RELEASE\\" /Fd"X64\RELEASE\VC142.PDB" /Gd /TP /FC C:\USERS\BLUE\DESKTOP\겜소공\프레임워크\GITPROJECT\01_2016182033\REMASTER_PROJ\SIMPLEGAME\SIMPLEGAME\DUMB.CPP
^C:\USERS\BLUE\DESKTOP\겜소공\프레임워크\GITPROJECT\01_2016182033\REMASTER_PROJ\SIMPLEGAME\SIMPLEGAME\GAMEPLAYSCENE.CPP
/c /Zi /nologo /W3 /WX- /diagnostics:column /sdl /O2 /Oi /GL /D NDEBUG /D _CONSOLE /D _UNICODE /D UNICODE /Gm- /EHsc /MD /GS /Gy /fp:precise /Zc:wchar_t /Zc:forScope /Zc:inline /Yu"stdafx.h" /Fp"X64\RELEASE\SIMPLEGAME.PCH" /Fo"X64\RELEASE\\" /Fd"X64\RELEASE\VC142.PDB" /Gd /TP /FC C:\USERS\BLUE\DESKTOP\겜소공\프레임워크\GITPROJECT\01_2016182033\REMASTER_PROJ\SIMPLEGAME\SIMPLEGAME\GAMEPLAYSCENE.CPP
^C:\USERS\BLUE\DESKTOP\겜소공\프레임워크\GITPROJECT\01_2016182033\REMASTER_PROJ\SIMPLEGAME\SIMPLEGAME\GRAPHICSCOMPONENT.CPP
/c /Zi /nologo /W3 /WX- /diagnostics:column /sdl /O2 /Oi /GL /D NDEBUG /D _CONSOLE /D _UNICODE /D UNICODE /Gm- /EHsc /MD /GS /Gy /fp:precise /Zc:wchar_t /Zc:forScope /Zc:inline /Yu"stdafx.h" /Fp"X64\RELEASE\SIMPLEGAME.PCH" /Fo"X64\RELEASE\\" /Fd"X64\RELEASE\VC142.PDB" /Gd /TP /FC C:\USERS\BLUE\DESKTOP\겜소공\프레임워크\GITPROJECT\01_2016182033\REMASTER_PROJ\SIMPLEGAME\SIMPLEGAME\GRAPHICSCOMPONENT.CPP
^C:\USERS\BLUE\DESKTOP\겜소공\프레임워크\GITPROJECT\01_2016182033\REMASTER_PROJ\SIMPLEGAME\SIMPLEGAME\ICOMPONENT.CPP
/c /Zi /nologo /W3 /WX- /diagnostics:column /sdl /O2 /Oi /GL /D NDEBUG /D _CONSOLE /D _UNICODE /D UNICODE /Gm- /EHsc /MD /GS /Gy /fp:precise /Zc:wchar_t /Zc:forScope /Zc:inline /Yu"stdafx.h" /Fp"X64\RELEASE\SIMPLEGAME.PCH" /Fo"X64\RELEASE\\" /Fd"X64\RELEASE\VC142.PDB" /Gd /TP /FC C:\USERS\BLUE\DESKTOP\겜소공\프레임워크\GITPROJECT\01_2016182033\REMASTER_PROJ\SIMPLEGAME\SIMPLEGAME\ICOMPONENT.CPP
^C:\USERS\BLUE\DESKTOP\겜소공\프레임워크\GITPROJECT\01_2016182033\REMASTER_PROJ\SIMPLEGAME\SIMPLEGAME\IGAMEAPP.CPP
/c /Zi /nologo /W3 /WX- /diagnostics:column /sdl /O2 /Oi /GL /D NDEBUG /D _CONSOLE /D _UNICODE /D UNICODE /Gm- /EHsc /MD /GS /Gy /fp:precise /Zc:wchar_t /Zc:forScope /Zc:inline /Yu"stdafx.h" /Fp"X64\RELEASE\SIMPLEGAME.PCH" /Fo"X64\RELEASE\\" /Fd"X64\RELEASE\VC142.PDB" /Gd /TP /FC C:\USERS\BLUE\DESKTOP\겜소공\프레임워크\GITPROJECT\01_2016182033\REMASTER_PROJ\SIMPLEGAME\SIMPLEGAME\IGAMEAPP.CPP
^C:\USERS\BLUE\DESKTOP\겜소공\프레임워크\GITPROJECT\01_2016182033\REMASTER_PROJ\SIMPLEGAME\SIMPLEGAME\IGAMEOBJECT.CPP
/c /Zi /nologo /W3 /WX- /diagnostics:column /sdl /O2 /Oi /GL /D NDEBUG /D _CONSOLE /D _UNICODE /D UNICODE /Gm- /EHsc /MD /GS /Gy /fp:precise /Zc:wchar_t /Zc:forScope /Zc:inline /Yu"stdafx.h" /Fp"X64\RELEASE\SIMPLEGAME.PCH" /Fo"X64\RELEASE\\" /Fd"X64\RELEASE\VC142.PDB" /Gd /TP /FC C:\USERS\BLUE\DESKTOP\겜소공\프레임워크\GITPROJECT\01_2016182033\REMASTER_PROJ\SIMPLEGAME\SIMPLEGAME\IGAMEOBJECT.CPP
^C:\USERS\BLUE\DESKTOP\겜소공\프레임워크\GITPROJECT\01_2016182033\REMASTER_PROJ\SIMPLEGAME\SIMPLEGAME\INPUT.CPP
/c /Zi /nologo /W3 /WX- /diagnostics:column /sdl /O2 /Oi /GL /D NDEBUG /D _CONSOLE /D _UNICODE /D UNICODE /Gm- /EHsc /MD /GS /Gy /fp:precise /Zc:wchar_t /Zc:forScope /Zc:inline /Yu"stdafx.h" /Fp"X64\RELEASE\SIMPLEGAME.PCH" /Fo"X64\RELEASE\\" /Fd"X64\RELEASE\VC142.PDB" /Gd /TP /FC C:\USERS\BLUE\DESKTOP\겜소공\프레임워크\GITPROJECT\01_2016182033\REMASTER_PROJ\SIMPLEGAME\SIMPLEGAME\INPUT.CPP
^C:\USERS\BLUE\DESKTOP\겜소공\프레임워크\GITPROJECT\01_2016182033\REMASTER_PROJ\SIMPLEGAME\SIMPLEGAME\ISSAC.CPP
/c /Zi /nologo /W3 /WX- /diagnostics:column /sdl /O2 /Oi /GL /D NDEBUG /D _CONSOLE /D _UNICODE /D UNICODE /Gm- /EHsc /MD /GS /Gy /fp:precise /Zc:wchar_t /Zc:forScope /Zc:inline /Yu"stdafx.h" /Fp"X64\RELEASE\SIMPLEGAME.PCH" /Fo"X64\RELEASE\\" /Fd"X64\RELEASE\VC142.PDB" /Gd /TP /FC C:\USERS\BLUE\DESKTOP\겜소공\프레임워크\GITPROJECT\01_2016182033\REMASTER_PROJ\SIMPLEGAME\SIMPLEGAME\ISSAC.CPP
^C:\USERS\BLUE\DESKTOP\겜소공\프레임워크\GITPROJECT\01_2016182033\REMASTER_PROJ\SIMPLEGAME\SIMPLEGAME\LOADPNG.CPP
/c /Zi /nologo /W3 /WX- /diagnostics:column /sdl /O2 /Oi /GL /D NDEBUG /D _CONSOLE /D _UNICODE /D UNICODE /Gm- /EHsc /MD /GS /Gy /fp:precise /Zc:wchar_t /Zc:forScope /Zc:inline /Yu"stdafx.h" /Fp"X64\RELEASE\SIMPLEGAME.PCH" /Fo"X64\RELEASE\\" /Fd"X64\RELEASE\VC142.PDB" /Gd /TP /FC C:\USERS\BLUE\DESKTOP\겜소공\프레임워크\GITPROJECT\01_2016182033\REMASTER_PROJ\SIMPLEGAME\SIMPLEGAME\LOADPNG.CPP
^C:\USERS\BLUE\DESKTOP\겜소공\프레임워크\GITPROJECT\01_2016182033\REMASTER_PROJ\SIMPLEGAME\SIMPLEGAME\MAP.CPP
/c /Zi /nologo /W3 /WX- /diagnostics:column /sdl /O2 /Oi /GL /D NDEBUG /D _CONSOLE /D _UNICODE /D UNICODE /Gm- /EHsc /MD /GS /Gy /fp:precise /Zc:wchar_t /Zc:forScope /Zc:inline /Yu"stdafx.h" /Fp"X64\RELEASE\SIMPLEGAME.PCH" /Fo"X64\RELEASE\\" /Fd"X64\RELEASE\VC142.PDB" /Gd /TP /FC C:\USERS\BLUE\DESKTOP\겜소공\프레임워크\GITPROJECT\01_2016182033\REMASTER_PROJ\SIMPLEGAME\SIMPLEGAME\MAP.CPP
^C:\USERS\BLUE\DESKTOP\겜소공\프레임워크\GITPROJECT\01_2016182033\REMASTER_PROJ\SIMPLEGAME\SIMPLEGAME\PAWN.CPP
/c /Zi /nologo /W3 /WX- /diagnostics:column /sdl /O2 /Oi /GL /D NDEBUG /D _CONSOLE /D _UNICODE /D UNICODE /Gm- /EHsc /MD /GS /Gy /fp:precise /Zc:wchar_t /Zc:forScope /Zc:inline /Yu"stdafx.h" /Fp"X64\RELEASE\SIMPLEGAME.PCH" /Fo"X64\RELEASE\\" /Fd"X64\RELEASE\VC142.PDB" /Gd /TP /FC C:\USERS\BLUE\DESKTOP\겜소공\프레임워크\GITPROJECT\01_2016182033\REMASTER_PROJ\SIMPLEGAME\SIMPLEGAME\PAWN.CPP
^C:\USERS\BLUE\DESKTOP\겜소공\프레임워크\GITPROJECT\01_2016182033\REMASTER_PROJ\SIMPLEGAME\SIMPLEGAME\PHYSICSCOMPONENT.CPP
/c /Zi /nologo /W3 /WX- /diagnostics:column /sdl /O2 /Oi /GL /D NDEBUG /D _CONSOLE /D _UNICODE /D UNICODE /Gm- /EHsc /MD /GS /Gy /fp:precise /Zc:wchar_t /Zc:forScope /Zc:inline /Yu"stdafx.h" /Fp"X64\RELEASE\SIMPLEGAME.PCH" /Fo"X64\RELEASE\\" /Fd"X64\RELEASE\VC142.PDB" /Gd /TP /FC C:\USERS\BLUE\DESKTOP\겜소공\프레임워크\GITPROJECT\01_2016182033\REMASTER_PROJ\SIMPLEGAME\SIMPLEGAME\PHYSICSCOMPONENT.CPP
^C:\USERS\BLUE\DESKTOP\겜소공\프레임워크\GITPROJECT\01_2016182033\REMASTER_PROJ\SIMPLEGAME\SIMPLEGAME\RENDERER.CPP
/c /Zi /nologo /W3 /WX- /diagnostics:column /sdl /O2 /Oi /GL /D NDEBUG /D _CONSOLE /D _UNICODE /D UNICODE /Gm- /EHsc /MD /GS /Gy /fp:precise /Zc:wchar_t /Zc:forScope /Zc:inline /Yu"stdafx.h" /Fp"X64\RELEASE\SIMPLEGAME.PCH" /Fo"X64\RELEASE\\" /Fd"X64\RELEASE\VC142.PDB" /Gd /TP /FC C:\USERS\BLUE\DESKTOP\겜소공\프레임워크\GITPROJECT\01_2016182033\REMASTER_PROJ\SIMPLEGAME\SIMPLEGAME\RENDERER.CPP
^C:\USERS\BLUE\DESKTOP\겜소공\프레임워크\GITPROJECT\01_2016182033\REMASTER_PROJ\SIMPLEGAME\SIMPLEGAME\SCENE.CPP
/c /Zi /nologo /W3 /WX- /diagnostics:column /sdl /O2 /Oi /GL /D NDEBUG /D _CONSOLE /D _UNICODE /D UNICODE /Gm- /EHsc /MD /GS /Gy /fp:precise /Zc:wchar_t /Zc:forScope /Zc:inline /Yu"stdafx.h" /Fp"X64\RELEASE\SIMPLEGAME.PCH" /Fo"X64\RELEASE\\" /Fd"X64\RELEASE\VC142.PDB" /Gd /TP /FC C:\USERS\BLUE\DESKTOP\겜소공\프레임워크\GITPROJECT\01_2016182033\REMASTER_PROJ\SIMPLEGAME\SIMPLEGAME\SCENE.CPP
^C:\USERS\BLUE\DESKTOP\겜소공\프레임워크\GITPROJECT\01_2016182033\REMASTER_PROJ\SIMPLEGAME\SIMPLEGAME\SCENEMANAGER.CPP
/c /Zi /nologo /W3 /WX- /diagnostics:column /sdl /O2 /Oi /GL /D NDEBUG /D _CONSOLE /D _UNICODE /D UNICODE /Gm- /EHsc /MD /GS /Gy /fp:precise /Zc:wchar_t /Zc:forScope /Zc:inline /Yu"stdafx.h" /Fp"X64\RELEASE\SIMPLEGAME.PCH" /Fo"X64\RELEASE\\" /Fd"X64\RELEASE\VC142.PDB" /Gd /TP /FC C:\USERS\BLUE\DESKTOP\겜소공\프레임워크\GITPROJECT\01_2016182033\REMASTER_PROJ\SIMPLEGAME\SIMPLEGAME\SCENEMANAGER.CPP
^C:\USERS\BLUE\DESKTOP\겜소공\프레임워크\GITPROJECT\01_2016182033\REMASTER_PROJ\SIMPLEGAME\SIMPLEGAME\SIMPLEGAME.CPP
/c /Zi /nologo /W3 /WX- /diagnostics:column /sdl /O2 /Oi /GL /D NDEBUG /D _CONSOLE /D _UNICODE /D UNICODE /Gm- /EHsc /MD /GS /Gy /fp:precise /Zc:wchar_t /Zc:forScope /Zc:inline /Yu"stdafx.h" /Fp"X64\RELEASE\SIMPLEGAME.PCH" /Fo"X64\RELEASE\\" /Fd"X64\RELEASE\VC142.PDB" /Gd /TP /FC C:\USERS\BLUE\DESKTOP\겜소공\프레임워크\GITPROJECT\01_2016182033\REMASTER_PROJ\SIMPLEGAME\SIMPLEGAME\SIMPLEGAME.CPP
^C:\USERS\BLUE\DESKTOP\겜소공\프레임워크\GITPROJECT\01_2016182033\REMASTER_PROJ\SIMPLEGAME\SIMPLEGAME\SOUND.CPP
/c /Zi /nologo /W3 /WX- /diagnostics:column /sdl /O2 /Oi /GL /D NDEBUG /D _CONSOLE /D _UNICODE /D UNICODE /Gm- /EHsc /MD /GS /Gy /fp:precise /Zc:wchar_t /Zc:forScope /Zc:inline /Yu"stdafx.h" /Fp"X64\RELEASE\SIMPLEGAME.PCH" /Fo"X64\RELEASE\\" /Fd"X64\RELEASE\VC142.PDB" /Gd /TP /FC C:\USERS\BLUE\DESKTOP\겜소공\프레임워크\GITPROJECT\01_2016182033\REMASTER_PROJ\SIMPLEGAME\SIMPLEGAME\SOUND.CPP
^C:\USERS\BLUE\DESKTOP\겜소공\프레임워크\GITPROJECT\01_2016182033\REMASTER_PROJ\SIMPLEGAME\SIMPLEGAME\STATE.CPP
/c /Zi /nologo /W3 /WX- /diagnostics:column /sdl /O2 /Oi /GL /D NDEBUG /D _CONSOLE /D _UNICODE /D UNICODE /Gm- /EHsc /MD /GS /Gy /fp:precise /Zc:wchar_t /Zc:forScope /Zc:inline /Yu"stdafx.h" /Fp"X64\RELEASE\SIMPLEGAME.PCH" /Fo"X64\RELEASE\\" /Fd"X64\RELEASE\VC142.PDB" /Gd /TP /FC C:\USERS\BLUE\DESKTOP\겜소공\프레임워크\GITPROJECT\01_2016182033\REMASTER_PROJ\SIMPLEGAME\SIMPLEGAME\STATE.CPP
^C:\USERS\BLUE\DESKTOP\겜소공\프레임워크\GITPROJECT\01_2016182033\REMASTER_PROJ\SIMPLEGAME\SIMPLEGAME\TITLESCENE.CPP
/c /Zi /nologo /W3 /WX- /diagnostics:column /sdl /O2 /Oi /GL /D NDEBUG /D _CONSOLE /D _UNICODE /D UNICODE /Gm- /EHsc /MD /GS /Gy /fp:precise /Zc:wchar_t /Zc:forScope /Zc:inline /Yu"stdafx.h" /Fp"X64\RELEASE\SIMPLEGAME.PCH" /Fo"X64\RELEASE\\" /Fd"X64\RELEASE\VC142.PDB" /Gd /TP /FC C:\USERS\BLUE\DESKTOP\겜소공\프레임워크\GITPROJECT\01_2016182033\REMASTER_PROJ\SIMPLEGAME\SIMPLEGAME\TITLESCENE.CPP
^C:\USERS\BLUE\DESKTOP\겜소공\프레임워크\GITPROJECT\01_2016182033\REMASTER_PROJ\SIMPLEGAME\SIMPLEGAME\UI.CPP
/c /Zi /nologo /W3 /WX- /diagnostics:column /sdl /O2 /Oi /GL /D NDEBUG /D _CONSOLE /D _UNICODE /D UNICODE /Gm- /EHsc /MD /GS /Gy /fp:precise /Zc:wchar_t /Zc:forScope /Zc:inline /Yu"stdafx.h" /Fp"X64\RELEASE\SIMPLEGAME.PCH" /Fo"X64\RELEASE\\" /Fd"X64\RELEASE\VC142.PDB" /Gd /TP /FC C:\USERS\BLUE\DESKTOP\겜소공\프레임워크\GITPROJECT\01_2016182033\REMASTER_PROJ\SIMPLEGAME\SIMPLEGAME\UI.CPP
